Indv,Min,Max,Sum,Mean,Q1,Med,Q3,IQR,lW ,rW
F1,11.68,37.2,2.07E+08,36.506,37.16,37.2,37.2,0.04,37.12,37.2
F2,8.92,37.2,1.71E+08,36.2216,36.92,37.2,37.2,0.28,36.64,37.2
F3,8.92,37.2,3.00E+08,36.4184,37,37.2,37.2,0.2,36.8,37.2
F4,7.92,37.2,2.94E+08,36.3916,37,37.2,37.2,0.2,36.8,37.2
F5,8.92,37.2,3.45E+08,36.4044,37,37.2,37.2,0.2,36.8,37.2
F6,8.44,37.2,3.88E+08,36.4548,37.12,37.2,37.2,0.08,37.04,37.2
F7,8.4,37.2,3.07E+08,36.428,37,37.2,37.2,0.2,36.8,37.2
F8,8.92,37.2,3.28E+08,36.4036,37,37.2,37.2,0.2,36.8,37.2
F9,8.92,37.2,2.56E+08,36.3412,37,37.2,37.2,0.2,36.8,37.2
F10,9.08,37.2,2.35E+08,36.4308,37,37.2,37.2,0.2,36.8,37.2
F11,7.96,37.2,2.63E+08,36.346,36.96,37.2,37.2,0.24,36.72,37.2
F12,8.44,37.2,2.42E+08,36.4184,37,37.2,37.2,0.2,36.8,37.2
F13,8.92,37.2,2.73E+08,36.396,37,37.2,37.2,0.2,36.8,37.2
F14,8.92,37.2,3.12E+08,36.3652,37,37.2,37.2,0.2,36.8,37.2
F15,11.68,37.2,2.20E+08,36.54,37.2,37.2,37.2,0,37.2,37.2
F16,11.04,37.2,2.02E+08,36.3728,36.96,37.2,37.2,0.24,36.72,37.2
F17,8.44,37.2,2.20E+08,36.3536,37,37.2,37.2,0.2,36.8,37.2
F18,11.68,27.2,2.14E+08,36.5204,37.16,37.2,37.2,0.04,37.12,37.2
F19,9.08,37.2,2.02E+08,36.3048,36.96,37.2,37.2,0.24,36.72,37.2
F20,11.68,37.2,2.34E+08,36.5568,37.2,37.2,37.2,0,37.2,37.2
F21,11.68,37.2,2.62E+08,36.4544,37.16,37.2,37.2,0.04,37.12,37.2
F22,7.92,37.2,3.51E+08,36.43,37,37.2,37.2,0.2,36.8,37.2
F23,11.68,37.2,1.89E+08,36.4276,37.16,37.2,37.2,0.04,37.12,37.2
F24,11.68,37.2,2.34E+08,36.5284,37.2,37.2,37.2,0,37.2,37.2
F25,8.92,37.2,2.41E+08,36.3212,36.96,37.2,37.2,0.24,36.72,37.2
F26,8.56,37.2,2.22E+08,36.3048,36.96,37.2,37.2,0.24,36.72,37.2
F27,8.88,37.2,4.20E+08,36.2604,36.96,37.2,37.2,0.24,36.72,37.2
F28,9.4,37.2,2.33E+08,36.3432,36.96,37.2,37.2,0.24,36.72,37.2
F29,11.2,37.2,2.01E+08,36.4216,37,37.2,37.2,0.2,36.8,37.2
F30,11.68,37.2,1.87E+08,36.4572,37.16,37.2,37.2,0.04,37.12,37.2
F31,11.68,37.2,2.39E+08,36.4352,37.12,37.2,37.2,0.08,37.04,37.2
F32,9.56,37.2,2.28E+08,36.3256,37,37.2,37.2,0.2,36.8,37.2
F33,11.68,37.2,3.17E+08,36.4356,37.16,37.2,37.2,0.04,37.12,37.2
F34,8.92,37.2,2.20E+08,36.2932,36.96,37.2,37.2,0.24,36.72,37.2
F35,11.04,37.2,2.85E+08,36.5452,37.16,37.2,37.2,0.04,37.12,37.2
F36,8.92,37.2,1.23E+08,36.2752,36.96,37.2,37.2,0.24,36.72,37.2
F37,9.4,37.2,2.02E+08,36.3168,36.96,37.2,37.2,0.24,36.72,37.2
F38,11.68,37.2,1.91E+08,36.498,37.16,37.2,37.2,0.04,37.12,37.2
F39,8.44,37.2,2.81E+08,36.4376,37.08,37.2,37.2,0.12,36.96,37.2
F40,8.92,37.2,2.67E+08,36.4148,37,37.2,37.2,0.2,36.8,37.2