column	count	min	max	sum	mean	Q1	med	Q3	IQR	lW	rW	A_Count	C_Count	G_Count	T_Count	N_Count	Max_count
1	7340281	2	34	243667432	33.20	33	34	34	1	32	34	848429	942529	162270	5386363	690	7340281
2	7340281	18	34	245137798	33.40	33	34	34	1	32	34	1825143	3174549	1813612	526977	0	7340281
3	7340281	18	34	245086747	33.39	33	34	34	1	32	34	1731889	3574718	1192551	841123	0	7340281
4	7340281	2	34	241462925	32.90	33	34	34	1	32	34	1323465	1179994	1537116	3299627	79	7340281
5	7340281	15	34	244880074	33.36	33	34	34	1	32	34	1217206	391048	4710249	1021778	0	7340281
6	7340281	2	38	268191205	36.54	38	38	38	0	38	38	713341	1050303	1322731	4253546	360	7340281
7	7340281	2	38	270784285	36.89	38	38	38	0	38	38	4934754	700055	716677	988620	175	7340281
8	7340281	2	38	273771398	37.30	38	38	38	0	38	38	1306992	3534894	1206756	1291617	22	7340281
9	7340281	2	38	274012543	37.33	38	38	38	0	38	38	882201	879020	867196	4711772	92	7340281
10	7340281	2	38	274646438	37.42	38	38	38	0	38	38	1461861	463370	4208245	1206565	240	7340281
11	7340281	2	38	274693654	37.42	38	38	38	0	38	38	3607110	691630	1871329	1170182	30	7340281
12	7340281	2	38	274533211	37.40	38	38	38	0	38	38	1343661	775090	4079207	1142168	155	7340281
13	7340281	14	38	274272008	37.37	38	38	38	0	38	38	1603013	3776820	635071	1325377	0	7340281
14	7340281	14	38	274632008	37.41	38	38	38	0	38	38	1232166	392830	1183933	4531352	0	7340281
15	7340281	14	38	274942042	37.46	38	38	38	0	38	38	1121414	1063702	4646575	508590	0	7340281
16	7340281	14	38	274480063	37.39	38	38	38	0	38	38	1515376	3176567	1451048	1197290	0	7340281
17	7340281	14	38	274369530	37.38	38	38	38	0	38	38	1017800	3333031	1546772	1442678	0	7340281
18	7340281	14	38	274465945	37.39	38	38	38	0	38	38	912973	3287835	1765738	1373735	0	7340281
19	7340281	14	38	274415273	37.38	38	38	38	0	38	38	890872	3722640	1865538	861231	0	7340281
20	7340281	14	38	274326186	37.37	38	38	38	0	38	38	356828	924115	4551282	1508056	0	7340281
21	6565923	14	38	244319792	37.21	38	38	38	0	38	38	3099478	746453	1302104	1417888	0	7340281
22	5234392	14	38	194559005	37.17	38	38	38	0	38	38	1076421	131859	3099705	926407	0	7340281
23	2760920	14	38	100888185	36.54	38	38	38	0	38	38	1870564	259226	224350	406780	0	7340281
24	435347	2	38	16114210	37.01	38	38	38	0	38	38	140330	26344	55403	213269	1	7340281
25	71054	2	38	2639288	37.14	38	38	38	0	38	38	10194	16750	17640	26469	1	7340281
