hsa-let-7b_TGAGGTAGTAGGTTGTGAAAA_6_23_18AT_u-AAA_0_0_0_0	0.506737461912786	0.506737461912786	0.506737461912786	0.506737461912786	0.506737461912786	0.506737461912786	0.506737461912786	0.506737461912786	0.506737461912786	0.506737461912786	5.27995267540696	0.506737461912786	0.506737461912786	0.506737461912786	3.76949325536046	0.506737461912786	0.506737461912786	4.75849331032993	0.506737461912786	0.506737461912786
hsa-miR-1224-5p_GTGAGGACTCGGGAGGTGGAAT_1_20_0_u-AT_0_d-A_TGA_GTGGAGGG	0.506737461912786	0.506737461912786	0.506737461912786	0.506737461912786	0.506737461912786	0.506737461912786	0.506737461912786	0.506737461912786	0.506737461912786	0.506737461912786	5.69336543864183	0.506737461912786	0.506737461912786	0.506737461912786	0.506737461912786	0.506737461912786	4.80866873337923	0.506737461912786	0.506737461912786	0.506737461912786
hsa-miR-125a-3p_CAGGTGAGGTTCTTGGGAGCC_54_74_0_0_d-A_0_GGTCACAG_AGCCTGGC	0.506737461912786	0.506737461912786	0.506737461912786	0.506737461912786	0.506737461912786	0.506737461912786	0.506737461912786	0.506737461912786	0.506737461912786	0.506737461912786	6.35425274593227	0.506737461912786	0.506737461912786	0.506737461912786	0.506737461912786	0.506737461912786	0.506737461912786	0.506737461912786	0.506737461912786	6.82065268702226
hsa-miR-1285-3p_TCTGGGCAACAAAGTGAGACCT_52_73_0_0_0_0_CCAATCTG_ACCTCCGT	0.506737461912786	0.506737461912786	0.506737461912786	0.506737461912786	0.506737461912786	0.506737461912786	6.01475961280717	0.506737461912786	0.506737461912786	0.506737461912786	0.506737461912786	0.506737461912786	0.506737461912786	0.506737461912786	0.506737461912786	0.506737461912786	5.4479266995193	5.4594628661733	0.506737461912786	3.09818355293033
hsa-miR-132-3p_TAACAGTCTACAGCCATGGTCA_59_79_0_u-A_0_u-G_GAGGTAAC_GTCGCCCC	0.506737461912786	0.506737461912786	0.506737461912786	0.506737461912786	0.506737461912786	0.506737461912786	0.506737461912786	0.506737461912786	0.506737461912786	0.506737461912786	6.96293797878062	0.506737461912786	0.506737461912786	0.506737461912786	0.506737461912786	0.506737461912786	0.506737461912786	0.506737461912786	0.506737461912786	0.506737461912786
hsa-miR-148b-5p_GAAGTTCTGTTATACACTCAGGCT_24_47_0_0_u-G_d-T_GGTGAAGT_AGGCTGTG	0.506737461912786	0.506737461912786	0.506737461912786	0.506737461912786	0.506737461912786	0.506737461912786	0.506737461912786	0.506737461912786	0.506737461912786	0.506737461912786	0.506737461912786	0.506737461912786	0.506737461912786	0.506737461912786	0.506737461912786	0.506737461912786	4.07342030303747	5.55990984338247	0.506737461912786	0.506737461912786
hsa-miR-151a-3p_ACTAGACTGAAGCTCCTTGAGGA_46_68_0_0_u-A_d-A_CCTACTAG_GAGGACAG	0.506737461912786	0.506737461912786	0.506737461912786	0.506737461912786	0.506737461912786	0.506737461912786	0.506737461912786	0.506737461912786	0.506737461912786	0.506737461912786	0.506737461912786	0.506737461912786	0.506737461912786	0.506737461912786	4.41053813477845	0.506737461912786	5.26470571636973	5.95362576852062	0.506737461912786	0.506737461912786
hsa-miR-154-5p_TAGGTTATCCGTGTTGCCTTCG_15_36_0_0_0_0_AAGATAGG_TTCGCTTT	0.506737461912786	7.36436395100367	0.506737461912786	0.506737461912786	0.506737461912786	0.506737461912786	0.506737461912786	0.506737461912786	0.506737461912786	0.506737461912786	0.506737461912786	0.506737461912786	8.6091832745521	0.506737461912786	0.506737461912786	7.25455639450231	3.6246459638715	5.65380501327365	0.506737461912786	0.506737461912786
hsa-miR-155-5p_TTAATGCTAATCGTGATAGGGGTTT_4_28_0_0_0_d-TT_TAA_GGGTTTTT	0.506737461912786	0.506737461912786	0.506737461912786	0.506737461912786	0.506737461912786	0.506737461912786	0.506737461912786	0.506737461912786	0.506737461912786	7.31820070202911	7.12259358529897	0.506737461912786	0.506737461912786	0.506737461912786	4.67195933274619	6.62311282591055	6.29615648526591	0.506737461912786	0.506737461912786	0.506737461912786
hsa-miR-183-5p_TATGGCACTGGTAGAATTCA_27_46_0_0_0_u-CT_TGTGTATG_CACTGTGA	0.506737461912786	7.28505134824892	0.506737461912786	0.506737461912786	0.506737461912786	0.506737461912786	4.72135657056766	0.506737461912786	0.506737461912786	0.506737461912786	5.54193077749964	0.506737461912786	0.506737461912786	0.506737461912786	0.506737461912786	0.506737461912786	0.506737461912786	5.59189324133657	0.506737461912786	0.506737461912786
hsa-miR-186-5p_CAAAGAATTCTCCTTTTGGGCAT_15_35_0_u-AT_0_u-T_TTTCCAAA_GGCTTTCT	0.506737461912786	0.506737461912786	0.506737461912786	0.506737461912786	0.506737461912786	0.506737461912786	0.506737461912786	0.506737461912786	5.77249269001009	0.506737461912786	5.74050108517857	6.72069290063276	0.506737461912786	0.506737461912786	0.506737461912786	0.506737461912786	0.506737461912786	0.506737461912786	0.506737461912786	0.506737461912786
hsa-miR-18a-3p_ACTGCCCTAAGTGCTCCTTCTG_47_68_0_0_0_u-G_ATCTACTG_CTGGCA	0.506737461912786	0.506737461912786	0.506737461912786	0.506737461912786	0.506737461912786	0.506737461912786	0.506737461912786	0.506737461912786	5.66729187749112	0.506737461912786	0.506737461912786	6.40830617590287	7.56480778262688	0.506737461912786	4.85141572399827	8.23453198578716	0.506737461912786	0.506737461912786	0.506737461912786	0.506737461912786
hsa-miR-199a-5p_CCCAGTGTTCAGACTACCTGTTCT_31_53_0_u-T_0_0_TCGCCCCA_GTTCAGGA	0.506737461912786	0.506737461912786	0.506737461912786	0.506737461912786	0.506737461912786	0.506737461912786	0.506737461912786	0.506737461912786	0.506737461912786	0.506737461912786	6.10702546553236	0.506737461912786	0.506737461912786	0.506737461912786	5.73642453553159	0.506737461912786	3.71005001982659	5.49372970758884	0.506737461912786	0.506737461912786
hsa-miR-26b-3p_CCTGTTCTCCATTACTTGGCTCT_47_68_0_u-T_0_0_CCAGCCTG_GCTCGGGG	0.506737461912786	0.506737461912786	0.506737461912786	0.506737461912786	0.506737461912786	0.506737461912786	0.506737461912786	0.506737461912786	0.506737461912786	0.506737461912786	6.17720685082204	6.68358455675265	0.506737461912786	0.506737461912786	0.506737461912786	0.506737461912786	0.506737461912786	0.506737461912786	0.506737461912786	5.56925464593979
hsa-miR-27b-5p_AGAGCTTAGCTGATTGGTGAACAG_19_42_0_0_0_d-AG_GTGCAGAG_GAACAGTG	0.506737461912786	0.506737461912786	0.506737461912786	0.506737461912786	0.506737461912786	0.506737461912786	0.506737461912786	0.506737461912786	0.506737461912786	0.506737461912786	0.506737461912786	0.506737461912786	0.506737461912786	0.506737461912786	0.506737461912786	0.506737461912786	0.506737461912786	5.38838072715392	0.506737461912786	6.29052094202074
hsa-miR-29a-3p_CTAGCACCATCTGAAATCGG_41_60_0_0_u-C_u-TTA_TTTCTAGC_GTTAT	0.506737461912786	7.22256713855047	0.506737461912786	0.506737461912786	7.57450649328026	0.506737461912786	5.00070734709507	0.506737461912786	0.506737461912786	0.506737461912786	0.506737461912786	0.506737461912786	8.33341880270554	0.506737461912786	0.506737461912786	6.91623093242622	4.51155012830362	0.506737461912786	0.506737461912786	0.506737461912786
hsa-miR-29c-3p_TAGCACCATTTGAAATCGGAAA_54_72_0_u-AAA_0_u-TTA_TGTCTAGC_GTTATGAT	0.506737461912786	0.506737461912786	0.506737461912786	0.506737461912786	0.506737461912786	0.506737461912786	5.05060356109158	0.506737461912786	0.506737461912786	0.506737461912786	0.506737461912786	0.506737461912786	9.1284836549781	0.506737461912786	5.01091188139779	0.506737461912786	4.80866873337923	5.65380501327365	0.506737461912786	0.506737461912786
hsa-miR-29c-3p_TAGCACCATTTGAAATCGGTTA_54_75_0_0_0_0_TGTCTAGC_GTTATGAT	0.506737461912786	8.35195083884526	0.506737461912786	0.506737461912786	0.506737461912786	0.506737461912786	6.03964630213384	0.506737461912786	0.506737461912786	0.506737461912786	0.506737461912786	6.29803689544983	8.94567867561173	0.506737461912786	4.2271682257182	7.25455639450231	6.29615648526591	7.06434269722655	0.506737461912786	5.2303503160881
hsa-miR-301b_CAGTGCAATGATATTGTCAAAG_45_66_0_0_0_u-C_GAAGCAGT_AAGCATCT	0.506737461912786	0.506737461912786	0.506737461912786	0.506737461912786	0.506737461912786	0.506737461912786	0.506737461912786	0.506737461912786	0.506737461912786	6.56238023072083	0.506737461912786	0.506737461912786	0.506737461912786	0.506737461912786	0.506737461912786	7.17365769359238	5.17842842335013	5.23472981153188	0.506737461912786	0.506737461912786
hsa-miR-3158-3p_AAGGGCTTCCTCTCTGCAGGA_50_70_0_0_0_u-C_GCAGAAGG_GGACCGGC	0.506737461912786	0.506737461912786	0.506737461912786	0.506737461912786	0.506737461912786	0.506737461912786	0.506737461912786	0.506737461912786	0.506737461912786	0.506737461912786	5.56830163739467	1.62222326306134	0.506737461912786	0.506737461912786	4.80861148159973	7.39202467599411	0.506737461912786	0.506737461912786	0.506737461912786	0.506737461912786
hsa-miR-3200-3p_CACCTTGCGCTACTCAGGTCTG_54_75_0_0_0_0_TCCACACC_TCTGCTCG	0.506737461912786	0.506737461912786	0.506737461912786	0.506737461912786	0.506737461912786	0.506737461912786	6.76190171272093	5.99546137803757	0.506737461912786	0.506737461912786	5.74050108517857	0.506737461912786	7.70956710709856	0.506737461912786	5.2849725995028	0.506737461912786	4.88336591340821	0.506737461912786	0.506737461912786	0.506737461912786
hsa-miR-339-3p_AGCGCCTCGACGACAGAGCC_52_71_0_0_d-TG_u-G_CCTGTGAG_GCCGGCGC	0.506737461912786	0.506737461912786	0.506737461912786	0.506737461912786	0.506737461912786	0.506737461912786	0.506737461912786	0.506737461912786	0.506737461912786	0.506737461912786	0.506737461912786	0.506737461912786	0.506737461912786	0.506737461912786	0.506737461912786	0.506737461912786	4.30922666347528	1.71517376461908	0.506737461912786	0.506737461912786
hsa-miR-339-3p_TGAGCGCCTCGACGACAGAGCCT_50_71_0_u-T_0_u-G_CCTGTGAG_GCCGGCGC	0.506737461912786	0.506737461912786	0.506737461912786	0.506737461912786	0.506737461912786	0.506737461912786	0.506737461912786	0.506737461912786	0.506737461912786	0.506737461912786	0.506737461912786	0.506737461912786	6.27459225227206	0.506737461912786	0.506737461912786	1.88006895329044	3.6246459638715	7.05290728162752	1.6984596056939	0.506737461912786
hsa-miR-342-5p_GGGGTGCTATCTGTGATTGAGG_20_41_0_0_d-A_d-GG_GGTGAGGG_TTGAGGGA	0.506737461912786	0.506737461912786	0.506737461912786	0.506737461912786	0.506737461912786	0.506737461912786	0.506737461912786	0.506737461912786	0.506737461912786	0.506737461912786	5.8084333608363	0.506737461912786	0.506737461912786	0.506737461912786	6.02471310242674	0.506737461912786	4.41396392743642	6.8298610634624	0.506737461912786	0.506737461912786
hsa-mir-342_GGGGTGCTATCTGTGATTGAGGGAC_20_44_0_0_0_0_0_0	0.506737461912786	0.506737461912786	0.506737461912786	0.506737461912786	0.506737461912786	0.506737461912786	5.73894367100271	0.506737461912786	0.506737461912786	6.31680754998883	6.84933836272602	0.506737461912786	0.506737461912786	0.506737461912786	6.98383815486433	0.506737461912786	3.6246459638715	6.4659547236585	7.48609591639587	0.506737461912786
hsa-miR-3605-3p_CCTCCGTGTTACCTGTCCTC_66_85_0_0_0_u-TAG_ACGGCCTC_CTAGGTGG	0.506737461912786	0.506737461912786	0.506737461912786	0.506737461912786	0.506737461912786	0.506737461912786	0.506737461912786	0.506737461912786	0.506737461912786	0.506737461912786	5.66920634099845	0.506737461912786	0.506737461912786	0.506737461912786	0.506737461912786	0.506737461912786	0.506737461912786	0.506737461912786	7.76316553967136	0.506737461912786
hsa-miR-370-3p_GCCTGCTGGGGTGGAACCTGGT_48_69_0_0_0_0_GAGTGCCT_TGGTCTGT	0.506737461912786	6.5070615134259	0.506737461912786	0.506737461912786	0.506737461912786	0.506737461912786	0.506737461912786	0.506737461912786	0.506737461912786	0.506737461912786	0.506737461912786	0.506737461912786	7.03028772246873	0.506737461912786	0.506737461912786	0.506737461912786	0.506737461912786	6.93327137272855	7.53479955449248	0.506737461912786
hsa-miR-423-3p_AAGCTCGGTCTGAGGCCCCTCAG_52_74_0_0_u-A_u-T_CAAAAGCT_CAGTCTTG	0.506737461912786	0.506737461912786	0.506737461912786	0.506737461912786	0.506737461912786	0.506737461912786	0.506737461912786	0.506737461912786	0.506737461912786	0.506737461912786	5.93538441424353	0.506737461912786	0.506737461912786	0.506737461912786	0.506737461912786	0.506737461912786	0.506737461912786	0.506737461912786	0.506737461912786	0.506737461912786
hsa-miR-423-5p_TGAGGGGCAGAGAGCGAGACAAG_17_36_0_u-AAG_0_u-TTT_AGGCTGAG_CTTTTCTA	0.506737461912786	0.506737461912786	0.506737461912786	0.506737461912786	0.506737461912786	0.506737461912786	0.506737461912786	0.506737461912786	0.506737461912786	0.506737461912786	0.506737461912786	0.506737461912786	0.506737461912786	6.342472962999	4.76449135836874	0.506737461912786	0.506737461912786	4.75849331032993	3.1320368539767	0.506737461912786
hsa-mir-548ad_CAAAAGTAATTGTGGTTTTTG_15_35_0_0_0_0_0_0	0.506737461912786	0.506737461912786	0.506737461912786	0.506737461912786	0.506737461912786	0.506737461912786	5.50869630914309	0.506737461912786	0.506737461912786	0.506737461912786	5.78614327416917	0.506737461912786	0.506737461912786	0.506737461912786	5.82484137536838	7.14565076914575	4.76981001450324	0.506737461912786	0.506737461912786	0.506737461912786
hsa-mir-548ae-2_CAAAAGTAATTGTGGTTTTTG_5_25_0_0_0_0_0_0	0.506737461912786	0.506737461912786	0.506737461912786	0.506737461912786	0.506737461912786	0.506737461912786	5.50869630914309	0.506737461912786	0.506737461912786	0.506737461912786	5.78614327416917	0.506737461912786	0.506737461912786	0.506737461912786	5.82484137536838	7.14565076914575	4.76981001450324	0.506737461912786	0.506737461912786	0.506737461912786
hsa-miR-548am-5p_AAAAGTAATTGCGGTTTTTGC_10_30_0_0_0_u-C_GTGCAAAA_TGCCGTCG	0.506737461912786	8.12595995549265	0.506737461912786	0.506737461912786	0.506737461912786	0.506737461912786	0.506737461912786	0.506737461912786	0.506737461912786	0.506737461912786	0.506737461912786	0.506737461912786	0.506737461912786	0.506737461912786	0.506737461912786	7.01242010669803	0.506737461912786	0.506737461912786	0.506737461912786	5.98589850597111
hsa-miR-548au-5p_AAAAGTAATTGCGGTTTTTGC_1_21_0_0_0_0_AAA_TTGCTATT	0.506737461912786	8.12595995549265	0.506737461912786	0.506737461912786	0.506737461912786	0.506737461912786	0.506737461912786	0.506737461912786	0.506737461912786	0.506737461912786	0.506737461912786	0.506737461912786	0.506737461912786	0.506737461912786	0.506737461912786	7.01242010669803	0.506737461912786	0.506737461912786	0.506737461912786	5.98589850597111
hsa-miR-548ay-5p_CAAAAGTAATTGTGGTTTTTG_27_47_0_0_u-C_u-C_GTGCAAAA_TTGCATTT	0.506737461912786	0.506737461912786	0.506737461912786	0.506737461912786	0.506737461912786	0.506737461912786	5.50869630914309	0.506737461912786	0.506737461912786	0.506737461912786	5.78614327416917	0.506737461912786	0.506737461912786	0.506737461912786	5.82484137536838	7.14565076914575	4.76981001450324	0.506737461912786	0.506737461912786	0.506737461912786
hsa-miR-548c-5p_AAAAGTAATTGCGGTTTTTGC_25_45_0_0_0_u-C_GTGCAAAA_TGCCATTA	0.506737461912786	8.12595995549265	0.506737461912786	0.506737461912786	0.506737461912786	0.506737461912786	0.506737461912786	0.506737461912786	0.506737461912786	0.506737461912786	0.506737461912786	0.506737461912786	0.506737461912786	0.506737461912786	0.506737461912786	7.01242010669803	0.506737461912786	0.506737461912786	0.506737461912786	5.98589850597111
hsa-miR-548d-5p_CAAAAGTAATTGTGGTTTTTG_24_44_0_0_u-C_u-CC_GTGCAAAA_TGCCATTG	0.506737461912786	0.506737461912786	0.506737461912786	0.506737461912786	0.506737461912786	0.506737461912786	5.50869630914309	0.506737461912786	0.506737461912786	0.506737461912786	5.78614327416917	0.506737461912786	0.506737461912786	0.506737461912786	5.82484137536838	7.14565076914575	4.76981001450324	0.506737461912786	0.506737461912786	0.506737461912786
hsa-miR-548e-5p_CAAAAGCAATCGCGGTTTTTGC_15_36_0_0_0_0_GGTACAAA_TTGCTATT	0.506737461912786	7.77321483369371	0.506737461912786	0.506737461912786	0.506737461912786	0.506737461912786	3.22855887831251	0.506737461912786	0.506737461912786	0.506737461912786	0.506737461912786	0.506737461912786	0.506737461912786	0.506737461912786	0.506737461912786	0.506737461912786	0.506737461912786	5.23472981153188	0.506737461912786	0.506737461912786
hsa-miR-548o-5p_AAAAGTAATTGCGGTTTTTGC_7_27_0_0_0_u-C_GTGCAAAA_TGCCATTA	0.506737461912786	8.12595995549265	0.506737461912786	0.506737461912786	0.506737461912786	0.506737461912786	0.506737461912786	0.506737461912786	0.506737461912786	0.506737461912786	0.506737461912786	0.506737461912786	0.506737461912786	0.506737461912786	0.506737461912786	7.01242010669803	0.506737461912786	0.506737461912786	0.506737461912786	5.98589850597111
hsa-miR-664a-3p_TATTCATTTATCCCCAGCCTACA_49_71_0_0_0_0_ATTCTATT_TACAAAAT	0.506737461912786	0.506737461912786	0.506737461912786	0.506737461912786	0.506737461912786	0.506737461912786	4.01891678926502	0.506737461912786	0.506737461912786	0.506737461912786	0.506737461912786	0.506737461912786	0.506737461912786	0.506737461912786	0.506737461912786	0.506737461912786	0.506737461912786	4.57821487293166	0.506737461912786	0.506737461912786
hsa-miR-671-3p_TCCGGTTCTCAGGGCTCCACC_68_88_0_0_0_0_TTCCTCCG_CACCTCTT	0.506737461912786	0.506737461912786	0.506737461912786	0.506737461912786	0.506737461912786	0.506737461912786	4.29324162146932	0.506737461912786	0.506737461912786	0.506737461912786	0.506737461912786	5.94766267079914	7.58496914057701	0.506737461912786	0.506737461912786	0.506737461912786	0.506737461912786	5.31360506633121	0.506737461912786	0.506737461912786
hsa-miR-6842-3p_TTGGCTGGTCTCTGCTCCGCAG_44_65_0_0_0_0_ACCCTTGG_GCAG	0.506737461912786	0.506737461912786	0.506737461912786	0.506737461912786	0.506737461912786	0.506737461912786	0.506737461912786	0.506737461912786	0.506737461912786	0.506737461912786	0.506737461912786	0.506737461912786	0.506737461912786	0.506737461912786	5.71344567978821	0.506737461912786	0.506737461912786	5.4594628661733	0.506737461912786	0.506737461912786
hsa-miR-6842-3p_TTGGCTGGTCTCTGCTCCGCAGT_44_65_0_u-T_0_0_ACCCTTGG_GCAG	0.506737461912786	7.48461339018629	0.506737461912786	0.506737461912786	0.506737461912786	0.506737461912786	5.79849236998511	0.506737461912786	0.506737461912786	0.506737461912786	5.83038386241188	7.68889536802839	7.50257578350702	0.506737461912786	0.506737461912786	7.14565076914575	4.95436892479834	5.92880561890266	0.506737461912786	0.506737461912786
hsa-miR-744-5p_GCGGGGCTAGGGCTAACAGC_12_31_0_0_d-T_u-A_AAGGTGCG_AGCAGTCT	0.506737461912786	0.506737461912786	0.506737461912786	0.506737461912786	0.506737461912786	0.506737461912786	4.01891678926502	0.506737461912786	0.506737461912786	0.506737461912786	5.85200498334826	0.506737461912786	0.506737461912786	7.27234207260825	0.506737461912786	0.506737461912786	0.506737461912786	6.18081738487949	0.506737461912786	0.506737461912786
hsa-miR-744-5p_GCGGGGCTAGGGCTAACAGCA_12_32_0_0_d-T_0_AAGGTGCG_AGCAGTCT	0.506737461912786	0.506737461912786	0.506737461912786	0.506737461912786	0.506737461912786	0.506737461912786	0.506737461912786	0.506737461912786	0.506737461912786	0.506737461912786	0.506737461912786	0.506737461912786	7.51313601672403	6.48073547207375	5.54142967803022	0.506737461912786	4.30922666347528	6.26253392828807	0.506737461912786	5.06874853548902
hsa-mir-7641-2_AGCTAAGCAGGGTCGGGCCTGGTT_14_37_0_0_0_0_0_0	0.506737461912786	0.506737461912786	0.506737461912786	0.506737461912786	0.506737461912786	6.94176183637697	0.506737461912786	0.506737461912786	0.506737461912786	0.506737461912786	6.88121793111124	0.506737461912786	0.506737461912786	0.506737461912786	0.506737461912786	0.506737461912786	0.506737461912786	0.506737461912786	0.506737461912786	0.506737461912786
hsa-miR-769-5p_TGAGACCTCTGGGTTCTGAGA_30_49_0_u-A_0_u-CT_GACCTGAG_AGCTGTGA	0.506737461912786	0.506737461912786	0.506737461912786	0.506737461912786	0.506737461912786	0.506737461912786	5.79849236998511	0.506737461912786	0.506737461912786	0.506737461912786	5.93538441424353	6.74491173071464	1.85418733489719	0.506737461912786	4.7189714070355	7.60239332440049	0.506737461912786	0.506737461912786	0.506737461912786	0.506737461912786
hsa-miR-7706_TGAAGCGCCTGTGCTCTGCCGAGT_44_66_0_u-T_0_u-A_GCGGTGAA_GAGA	0.506737461912786	0.506737461912786	0.506737461912786	0.506737461912786	0.506737461912786	0.506737461912786	0.506737461912786	0.506737461912786	0.506737461912786	0.506737461912786	0.506737461912786	6.67099984427629	0.506737461912786	0.506737461912786	0.506737461912786	0.506737461912786	3.43645710416006	5.74195219828278	0.506737461912786	0.506737461912786
hsa-miR-877-5p_GTAGAGGAGATGGCGCAGGGA_1_20_0_u-A_0_0_TAG_AGGGGACA	0.506737461912786	0.506737461912786	0.506737461912786	0.506737461912786	0.506737461912786	0.506737461912786	4.11634902604289	0.506737461912786	0.506737461912786	0.506737461912786	5.85200498334826	0.506737461912786	0.506737461912786	0.506737461912786	0.506737461912786	0.506737461912786	0.506737461912786	0.506737461912786	0.506737461912786	1.68015561790018
hsa-miR-92a-3p_TATTGCACTTGTCCCGGCCTGAT_48_68_0_u-AT_0_u-T_AAAGTATT_CTGTGGAA	0.506737461912786	0.506737461912786	0.506737461912786	0.506737461912786	0.506737461912786	0.506737461912786	0.506737461912786	0.506737461912786	0.506737461912786	0.506737461912786	0.506737461912786	0.506737461912786	7.60485259653603	3.4348859950665	1.59149208500509	0.506737461912786	0.506737461912786	0.506737461912786	0.506737461912786	0.506737461912786
hsa-miR-92a-3p_TATTGCACTTGTCCCGGCCTGTTTT_48_70_0_u-TT_0_d-T_ATGGTATT_CTGTTGAG	0.506737461912786	0.506737461912786	0.506737461912786	0.506737461912786	0.506737461912786	0.506737461912786	0.506737461912786	0.506737461912786	0.506737461912786	0.506737461912786	5.89429765914905	0.506737461912786	0.506737461912786	6.89103861041025	0.506737461912786	0.506737461912786	0.506737461912786	0.506737461912786	0.506737461912786	5.76649019371941
