hsa-let-7i-5p_6_27_0_u-AG_0_0_TGGCTGAG_TGTTGGTC_TGAGGTAGTAGTTTGTGCTGTTAG -1.00084451800811
hsa-miR-100-5p_13_33_0_0_0_u-G_CACAAACC_TGTGGTAT_AACCCGTAGATCCGAACTTGT -1.15388458712561
hsa-miR-100-5p_13_34_0_u-T_0_0_CACAAACC_TGTGGTAT_AACCCGTAGATCCGAACTTGTGT -1.25200952536439
hsa-miR-106a-5p_13_35_0_0_0_0_ATGTAAAA_GTAGCTTT_AAAAGTGCTTACAGTGCAGGTAG -1.07879499129434
hsa-miR-106b-5p_12_31_0_0_0_u-T_GGGCTAAA_AGATAGTG_TAAAGTGCTGACAGTGCAGA -1.09165105535512
hsa-miR-130a-3p_55_76_0_0_0_0_CTAGCAGT_GCATTGGC_CAGTGCAATGTTAAAAGGGCAT -1.13986211120962
hsa-miR-139-5p_7_28_0_0_0_u-T_GTATTCTA_CAGTGTGG_TCTACAGTGCACGTGTCTCCAG -1.05840259640546
hsa-miR-140-3p_62_82_0_0_0_0_GTTCTACC_ACGGACAG_TACCACAGGGTAGAACCACGG -1.30370466565393
hsa-miR-140-3p_62_83_0_0_0_d-A_GTTCTACC_ACGGACAG_TACCACAGGGTAGAACCACGGA -1.68538120981582
hsa-miR-140-3p_62_83_0_u-T_0_d-A_GTTCTACC_ACGGACAG_TACCACAGGGTAGAACCACGGAT -1.39720092235559
hsa-miR-140-3p_62_84_0_0_0_d-AC_GTTCTACC_ACGGACAG_TACCACAGGGTAGAACCACGGAC -1.64019925124938
hsa-miR-140-3p_62_84_0_u-G_0_d-AC_GTTCTACC_ACGGACAG_TACCACAGGGTAGAACCACGGACG -1.06728520499446
hsa-miR-140-3p_62_85_0_0_0_d-ACA_GTTCTACC_ACGGACAG_TACCACAGGGTAGAACCACGGACA -1.81900162916752
hsa-miR-140-3p_63_82_0_0_d-T_0_GTTCTACC_ACGGACAG_ACCACAGGGTAGAACCACGG -1.35329423725422
hsa-miR-140-3p_63_83_0_0_d-T_d-A_GTTCTACC_ACGGACAG_ACCACAGGGTAGAACCACGGA -1.66160098853141
hsa-miR-140-3p_63_83_0_u-T_d-T_d-A_GTTCTACC_ACGGACAG_ACCACAGGGTAGAACCACGGAT -1.30339917687479
hsa-miR-140-3p_63_84_0_0_d-T_d-AC_GTTCTACC_ACGGACAG_ACCACAGGGTAGAACCACGGAC -1.16778173292564
hsa-miR-140-3p_63_85_0_0_d-T_d-ACA_GTTCTACC_ACGGACAG_ACCACAGGGTAGAACCACGGACA -1.45283417991516
hsa-miR-140-3p_63_85_0_u-A_d-T_d-ACA_GTTCTACC_ACGGACAG_ACCACAGGGTAGAACCACGGACAA -1.0019719430058
hsa-miR-140-3p_64_83_0_0_d-TA_d-A_GTTCTACC_ACGGACAG_CCACAGGGTAGAACCACGGA -1.27882982747838
hsa-miR-140-3p_64_84_0_0_d-TA_d-AC_GTTCTACC_ACGGACAG_CCACAGGGTAGAACCACGGAC -1.18270246217856
hsa-miR-140-3p_64_85_0_0_d-TA_d-ACA_GTTCTACC_ACGGACAG_CCACAGGGTAGAACCACGGACA -1.12645731529862
hsa-miR-140-5p_23_44_0_0_0_0_CTGCCAGT_GTAGGTTA_CAGTGGTTTTACCCTATGGTAG -1.26375004834501
hsa-miR-144-5p_15_36_0_0_0_0_GCTGGGAT_TAAGTTTG_GGATATCATCATATACTGTAAG -1.17689267724783
hsa-miR-145-5p_16_37_0_0_0_u-T_CACGGTCC_CCCTTAGA_GTCCAGTTTTCCCAGGAATCCC -1.10043125118451
hsa-miR-152-3p_54_74_0_0_0_0_GCAGTCAG_TTGGGCCC_TCAGTGCATGACAGAACTTGG -1.24622813546962
hsa-miR-155-5p_4_24_0_0_0_u-GT_TAA_GGGTTTTT_TTAATGCTAATCGTGATAGGG -1.23989808955535
hsa-miR-155-5p_4_25_0_0_0_u-T_TAA_GGGTTTTT_TTAATGCTAATCGTGATAGGGG -1.24711637982248
hsa-miR-155-5p_4_26_0_0_0_0_TAA_GGGTTTTT_TTAATGCTAATCGTGATAGGGGT -1.02546133763708
hsa-miR-15b-5p_20_38_0_0_0_u-ACA_ACTGTAGC_TACATGCT_TAGCAGCACATCATGGTTT -1.02512539795519
hsa-miR-15b-5p_20_39_0_0_0_u-CA_ACTGTAGC_TACATGCT_TAGCAGCACATCATGGTTTA -1.40816728069477
hsa-miR-16-5p_10_29_0_0_0_u-CG_ACTCTAGC_GGCGTAGT_TAGCAGCACGTAAATATTGG -1.39687420637841
hsa-miR-17-5p_14_34_0_0_0_u-AG_ATGTCAAA_GTAGTGAT_CAAAGTGCTTACAGTGCAGGT -1.09494551041456
hsa-miR-17-5p_14_35_0_0_0_u-G_ATGTCAAA_GTAGTGAT_CAAAGTGCTTACAGTGCAGGTA -1.14605813840876
hsa-miR-17-5p_14_36_0_0_0_0_ATGTCAAA_GTAGTGAT_CAAAGTGCTTACAGTGCAGGTAG -1.26405293109189
hsa-miR-17-5p_14_36_0_u-A_0_0_ATGTCAAA_GTAGTGAT_CAAAGTGCTTACAGTGCAGGTAGA -1.02975502961875
hsa-miR-185-5p_15_36_0_0_0_0_GGATTGGA_CTGATGGT_TGGAGAGAAAGGCAGTTCCTGA -1.62154621680569
hsa-miR-199a-3p_70_89_0_0_0_u-TA_TTGTACAG_GTTAGACT_ACAGTAGTCTGCACATTGGT -1.06203245941008
hsa-miR-199a-3p_70_90_0_u-T_0_u-A_TTGTACAG_GTTAGACT_ACAGTAGTCTGCACATTGGTTT -1.03355616277258
hsa-miR-199b-3p_65_84_0_0_0_u-TA_TTGTACAG_GTTAGGCT_ACAGTAGTCTGCACATTGGT -1.06203245941008
hsa-miR-199b-3p_65_85_0_u-T_0_u-A_TTGTACAG_GTTAGGCT_ACAGTAGTCTGCACATTGGTTT -1.03355616277258
hsa-miR-20a-5p_8_28_0_0_0_u-AG_GCACTAAA_GTAGTGTT_TAAAGTGCTTATAGTGCAGGT -1.00191600968079
hsa-miR-20a-5p_8_29_0_0_0_u-G_GCACTAAA_GTAGTGTT_TAAAGTGCTTATAGTGCAGGTA -1.06265827699549
hsa-miR-20a-5p_8_30_0_0_0_0_GCACTAAA_GTAGTGTT_TAAAGTGCTTATAGTGCAGGTAG -1.45492267111855
hsa-miR-20b-5p_6_28_0_0_0_0_GTACCAAA_GTAGTTTT_CAAAGTGCTCATAGTGCAGGTAG -1.24561296692138
hsa-miR-21-5p_8_29_13TC_0_0_0_CGGGTAGC_TTGACTGT_TAGCTTATCAGATTGATGTTGA -1.02078524678177
hsa-miR-21-5p_8_29_14CT_0_0_0_CGGGTAGC_TTGACTGT_TAGCTTATCAGACCGATGTTGA -1.02899376752786
hsa-miR-21-5p_8_29_15TG_0_0_0_CGGGTAGC_TTGACTGT_TAGCTTATCAGACTTATGTTGA -1.0235852961754
hsa-miR-21-5p_8_29_9TC_0_0_0_CGGGTAGC_TTGACTGT_TAGCTTATTAGACTGATGTTGA -1.21109868873037
hsa-miR-21-5p_9_29_0_0_d-T_0_CGGGTAGC_TTGACTGT_AGCTTATCAGACTGATGTTGA -1.05027157144823
hsa-miR-223-3p_68_89_0_0_0_0_AGAGTGTC_CCCAAGTG_TGTCAGTTTGTCAAATACCCCA -1.07386116522774
hsa-miR-223-3p_68_90_0_0_0_d-A_AGAGTGTC_CCCAAGTG_TGTCAGTTTGTCAAATACCCCAA -1.00591877972951
hsa-miR-23a-3p_45_64_0_0_0_u-C_ACAAATCA_TTCCAACC_ATCACATTGCCAGGGATTTC -1.05804734357474
hsa-miR-23a-3p_45_64_0_u-A_0_u-C_ACAAATCA_TTCCAACC_ATCACATTGCCAGGGATTTCA -1.00014869792318
hsa-miR-23a-3p_45_66_0_0_0_d-A_ACAAATCA_TTCCAACC_ATCACATTGCCAGGGATTTCCA -1.14195358423166
hsa-miR-23a-3p_45_66_0_u-T_0_d-A_ACAAATCA_TTCCAACC_ATCACATTGCCAGGGATTTCCAT -1.00731761337081
hsa-miR-23b-3p_58_80_0_u-A_0_d-AC_TAAAATCA_TACCACGC_ATCACATTGCCAGGGATTACCACA -1.04966154143155
hsa-miR-24-3p_50_70_0_u-A_0_u-G_ACACTGGC_ACAGGG_TGGCTCAGTTCAGCAGGAACAA -1.21356402509078
hsa-miR-24-3p_50_71_0_0_0_0_ACACTGGC_ACAGGG_TGGCTCAGTTCAGCAGGAACAG -1.44805378276465
hsa-miR-24-3p_50_71_0_u-T_0_0_ACACTGGC_ACAGGG_TGGCTCAGTTCAGCAGGAACAGT -1.09973429002875
hsa-miR-24-3p_50_71_0_u-TA_0_0_ACACTGGC_ACAGGG_TGGCTCAGTTCAGCAGGAACAGTA -1.01773928813575
hsa-miR-34c-5p_13_35_0_0_0_0_TACTAGGC_TTGCTAAT_AGGCAGTGTAGTTAGCTGATTGC -1.03489400716894
hsa-miR-378a-3p_43_62_0_0_0_u-GC_TAGCACTG_AGGCCT_ACTGGACTTGGAGTCAGAAG -1.18212709375921
hsa-miR-378a-3p_43_63_0_0_0_u-C_TAGCACTG_AGGCCT_ACTGGACTTGGAGTCAGAAGG -1.24736211735041
hsa-miR-378a-3p_43_63_0_u-A_0_u-C_TAGCACTG_AGGCCT_ACTGGACTTGGAGTCAGAAGGA -1.01977113106705
hsa-miR-378a-3p_43_64_0_u-AA_0_0_TAGCACTG_AGGCCT_ACTGGACTTGGAGTCAGAAGGCAA -1.0331168050878
hsa-miR-378a-3p_44_63_0_0_d-A_u-C_TAGCACTG_AGGCCT_CTGGACTTGGAGTCAGAAGG -1.33491336118223
hsa-miR-378a-3p_44_63_0_u-A_d-A_u-C_TAGCACTG_AGGCCT_CTGGACTTGGAGTCAGAAGGA -1.01563761555406
hsa-miR-378a-3p_44_64_0_u-AA_d-A_0_TAGCACTG_AGGCCT_CTGGACTTGGAGTCAGAAGGCAA -1.14186054272357
hsa-miR-378a-3p_44_64_0_u-AT_d-A_0_TAGCACTG_AGGCCT_CTGGACTTGGAGTCAGAAGGCAT -1.01933806729497
hsa-miR-378a-3p_44_64_0_u-T_d-A_0_TAGCACTG_AGGCCT_CTGGACTTGGAGTCAGAAGGCT -1.13052790273706
hsa-mir-378c_11_30_0_0_0_0_0_0_ACTGGACTTGGAGTCAGAAG -1.18212709375921
hsa-mir-378c_11_31_0_0_0_0_0_0_ACTGGACTTGGAGTCAGAAGA -1.12280052106284
hsa-miR-451a_17_36_0_0_0_u-TT_AAGGAAAC_AGTTTAGT_AAACCGTTACCATTACTGAG -1.33694050951787
hsa-miR-451a_17_37_0_0_0_u-T_AAGGAAAC_AGTTTAGT_AAACCGTTACCATTACTGAGT -1.32833568576769
hsa-miR-451a_17_38_0_0_0_0_AAGGAAAC_AGTTTAGT_AAACCGTTACCATTACTGAGTT -1.57550693140932
hsa-miR-451a_17_39_0_0_0_d-T_AAGGAAAC_AGTTTAGT_AAACCGTTACCATTACTGAGTTT -1.49833768111931
hsa-miR-451a_17_40_0_0_0_d-TA_AAGGAAAC_AGTTTAGT_AAACCGTTACCATTACTGAGTTTA -1.08099094836785
hsa-miR-584-5p_16_36_0_0_0_u-G_GCCATTAT_TGAGGAAT_TTATGGTTTGCCTGGGACTGA -1.1080973948325
hsa-miR-93-5p_11_30_0_0_0_u-TAG_GCTCCAAA_GTAGTGTG_CAAAGTGCTGTTCGTGCAGG -1.55200569083654
hsa-miR-93-5p_11_31_0_0_0_u-AG_GCTCCAAA_GTAGTGTG_CAAAGTGCTGTTCGTGCAGGT -1.09742395111102
hsa-miR-93-5p_11_32_0_0_0_u-G_GCTCCAAA_GTAGTGTG_CAAAGTGCTGTTCGTGCAGGTA -1.34069014707391
hsa-miR-93-5p_11_32_0_u-A_0_u-G_GCTCCAAA_GTAGTGTG_CAAAGTGCTGTTCGTGCAGGTAA -1.0512269316723
hsa-miR-93-5p_11_33_0_0_0_0_GCTCCAAA_GTAGTGTG_CAAAGTGCTGTTCGTGCAGGTAG -1.02798253092111
hsa-miR-93-5p_12_33_0_0_d-C_0_GCTCCAAA_GTAGTGTG_AAAGTGCTGTTCGTGCAGGTAG -1.0846732355421
