iso-miR-3943	0.506737461912786	0.506737461912786	0.506737461912786	0.506737461912786	1.63869952356738	0.506737461912786	4.2075370858897	0.506737461912786	0.506737461912786	0.506737461912786	0.506737461912786	6.92528063549222	0.506737461912786	7.48441423183374	5.69009433618939	0.506737461912786	2.44413294111809	6.84320015959636	7.88713276615547	0.506737461912786
iso-miR-5960	2.73800909600472	2.20376828907619	6.53581572514789	3.11336969927899	2.63179353605132	2.7564514551941	7.63295918399584	6.23935829909921	2.41818668374008	5.60420558791449	6.82768698268152	1.62222326306134	7.52361950333313	7.33201189493868	8.33417999326846	2.38712919415027	7.67862707827008	5.42436049265162	8.9460640836642	7.1681327975428
iso-miR-6060	2.73800909600472	2.20376828907619	6.53581572514789	3.11336969927899	2.63179353605132	2.7564514551941	7.63295918399584	6.23935829909921	2.41818668374008	5.60420558791449	6.82768698268152	1.62222326306134	7.52361950333313	7.33201189493868	8.33417999326846	2.38712919415027	7.67862707827008	5.42436049265162	8.9460640836642	7.1681327975428
iso-miR-7127	2.73800909600472	3.37274716905717	3.21107723125321	2.33096448733537	7.64918113072665	6.75733243210053	6.58728147380548	2.91523807162413	5.98438625481212	6.3949675964167	6.89168976328586	2.81083648760679	6.68279248224623	7.5104733839283	6.68649086939406	2.74494040320147	6.66699579317925	6.41326086581502	7.80347589625589	7.6033550308694
iso-miR-7919	8.46797897454017	8.4231348626523	8.38342658576402	8.91855444991073	1.63869952356738	8.60681061168799	8.20557651350672	8.86108086661539	6.98537931093109	5.8084946648673	8.18656379510705	8.22914167180302	9.58904326996969	9.57918504142727	8.05247916129438	7.25455639450231	8.14024078119725	9.21040128087007	9.75071956084276	8.76734674294826
iso-miR-8704	13.4830151304333	14.6370302037977	14.1560340314026	13.1289831151202	13.7924546991986	13.8386835140857	14.5125099988127	14.5442938608028	13.8550610611871	14.6707871943883	14.1340664876748	14.6922596488946	14.5059803440157	14.8048816488252	14.4649999248461	13.5995688607194	13.9826499932422	14.9875414915466	15.0687366821381	14.3336087992973
iso-miR-8705	2.38102426894396	9.52249378781773	7.44830792990732	7.52512472027559	8.71047512020698	8.21500370342244	8.34681452178288	6.08463415758532	8.40085264931075	7.75346253626313	8.73522036659374	9.04107796610201	9.50953286049383	9.10630716904059	9.07435775223515	7.24138444762611	8.41913629055473	8.99727763214524	10.2809614415934	8.21304104497836
