canonical-miR-1197
canonical-miR-127-3p
canonical-miR-132-3p
canonical-miR-136-3p
canonical-miR-148a-5p
canonical-miR-181c-5p
canonical-miR-182-5p
canonical-miR-183-5p
canonical-miR-194-5p
canonical-miR-200a-3p
canonical-miR-204-5p
canonical-miR-27b-5p
canonical-miR-299-3p
canonical-miR-301b
canonical-miR-3064-5p
canonical-miR-30d-3p
canonical-miR-3177-3p
canonical-miR-339-3p
canonical-miR-3605-5p
canonical-miR-370-3p
canonical-miR-377-5p
canonical-miR-381-3p
canonical-miR-3909
canonical-miR-3934-5p
canonical-miR-409-3p
canonical-miR-410-3p
canonical-miR-411-5p
canonical-miR-433-3p
canonical-miR-487b-3p
canonical-miR-493-3p
canonical-miR-539-3p
canonical-miR-541-3p
canonical-miR-548k
canonical-miR-548o-3p
canonical-miR-577
canonical-miR-598-3p
canonical-miR-628-3p
canonical-miR-642a-3p
canonical-miR-642a-5p
canonical-miR-654-5p
canonical-miR-656-3p
canonical-miR-671-3p
canonical-miR-873-3p
canonical-miR-873-5p
canonical-miR-877-5p
canonical-miR-889-3p
canonical-miR-98-5p
iso-miR-74
iso-miR-77
iso-miR-100
iso-miR-131
iso-miR-149
iso-miR-177
iso-miR-200
iso-miR-209
iso-miR-233
iso-miR-234
iso-miR-235
iso-miR-236
iso-miR-237
iso-miR-427
iso-miR-488
iso-miR-639
iso-miR-647
iso-miR-649
iso-miR-650
iso-miR-651
iso-miR-653
iso-miR-654
iso-miR-828
iso-miR-831
iso-miR-832
iso-miR-833
iso-miR-834
iso-miR-835
iso-miR-836
iso-miR-837
iso-miR-872
iso-miR-873
iso-miR-876
iso-miR-877
iso-miR-885
iso-miR-888
iso-miR-889
iso-miR-892
iso-miR-893
iso-miR-894
iso-miR-899
iso-miR-904
iso-miR-905
iso-miR-908
iso-miR-909
iso-miR-912
iso-miR-917
iso-miR-918
iso-miR-919
iso-miR-921
iso-miR-924
iso-miR-925
iso-miR-931
iso-miR-935
iso-miR-950
iso-miR-951
iso-miR-960
iso-miR-963
iso-miR-965
iso-miR-966
iso-miR-969
iso-miR-973
iso-miR-976
iso-miR-978
iso-miR-981
iso-miR-986
iso-miR-994
iso-miR-999
iso-miR-1000
iso-miR-1006
iso-miR-1008
iso-miR-1009
iso-miR-1010
iso-miR-1035
iso-miR-1042
iso-miR-1043
iso-miR-1044
iso-miR-1053
iso-miR-1075
iso-miR-1079
iso-miR-1082
iso-miR-1086
iso-miR-1088
iso-miR-1095
iso-miR-1102
iso-miR-1105
iso-miR-1108
iso-miR-1110
iso-miR-1113
iso-miR-1114
iso-miR-1117
iso-miR-1127
iso-miR-1129
iso-miR-1158
iso-miR-1161
iso-miR-1164
iso-miR-1174
iso-miR-1176
iso-miR-1177
iso-miR-1217
iso-miR-1226
iso-miR-1242
iso-miR-1300
iso-miR-1311
iso-miR-1343
iso-miR-1346
iso-miR-1395
iso-miR-1433
iso-miR-1441
iso-miR-1568
iso-miR-1731
iso-miR-1748
iso-miR-1751
iso-miR-1753
iso-miR-1833
iso-miR-1953
iso-miR-1968
iso-miR-2028
iso-miR-2029
iso-miR-2030
iso-miR-2031
iso-miR-2032
iso-miR-2033
iso-miR-2034
iso-miR-2055
iso-miR-2075
iso-miR-2076
iso-miR-2101
iso-miR-2110
iso-miR-2121
iso-miR-2166
iso-miR-2170
iso-miR-2175
iso-miR-2215
iso-miR-2221
iso-miR-2228
iso-miR-2231
iso-miR-2234
iso-miR-2240
iso-miR-2245
iso-miR-2247
iso-miR-2248
iso-miR-2249
iso-miR-2260
iso-miR-2261
iso-miR-2263
iso-miR-2264
iso-miR-2267
iso-miR-2294
iso-miR-2593
iso-miR-2594
iso-miR-2596
iso-miR-2778
iso-miR-2780
iso-miR-2785
iso-miR-2788
iso-miR-2789
iso-miR-2790
iso-miR-2791
iso-miR-2792
iso-miR-2794
iso-miR-2795
iso-miR-2842
iso-miR-2844
iso-miR-2845
iso-miR-2851
iso-miR-2853
iso-miR-2855
iso-miR-2856
iso-miR-2857
iso-miR-2866
iso-miR-2867
iso-miR-2916
iso-miR-2917
iso-miR-3077
iso-miR-3087
iso-miR-3108
iso-miR-3113
iso-miR-3117
iso-miR-3124
iso-miR-3128
iso-miR-3132
iso-miR-3135
iso-miR-3139
iso-miR-3142
iso-miR-3147
iso-miR-3148
iso-miR-3150
iso-miR-3151
iso-miR-3169
iso-miR-3183
iso-miR-3190
iso-miR-3193
iso-miR-3200
iso-miR-3205
iso-miR-3210
iso-miR-3211
iso-miR-3212
iso-miR-3213
iso-miR-3267
iso-miR-3280
iso-miR-3286
iso-miR-3292
iso-miR-3293
iso-miR-3294
iso-miR-3304
iso-miR-3308
iso-miR-3315
iso-miR-3336
iso-miR-3337
iso-miR-3338
iso-miR-3344
iso-miR-3353
iso-miR-3354
iso-miR-3356
iso-miR-3358
iso-miR-3362
iso-miR-3366
iso-miR-3380
iso-miR-3469
iso-miR-3597
iso-miR-3619
iso-miR-3789
iso-miR-3790
iso-miR-3808
iso-miR-3809
iso-miR-3810
iso-miR-3814
iso-miR-3824
iso-miR-3827
iso-miR-3835
iso-miR-3880
iso-miR-3883
iso-miR-3886
iso-miR-3943
iso-miR-3944
iso-miR-3945
iso-miR-3947
iso-miR-3948
iso-miR-3949
iso-miR-3954
iso-miR-3956
iso-miR-3961
iso-miR-3969
iso-miR-3971
iso-miR-3973
iso-miR-3974
iso-miR-3977
iso-miR-3978
iso-miR-3979
iso-miR-3980
iso-miR-3981
iso-miR-3982
iso-miR-3983
iso-miR-3990
iso-miR-3992
iso-miR-4000
iso-miR-4001
iso-miR-4002
iso-miR-4003
iso-miR-4007
iso-miR-4009
iso-miR-4010
iso-miR-4012
iso-miR-4013
iso-miR-4018
iso-miR-4019
iso-miR-4068
iso-miR-4085
iso-miR-4086
iso-miR-4091
iso-miR-4094
iso-miR-4102
iso-miR-4106
iso-miR-4117
iso-miR-4120
iso-miR-4121
iso-miR-4124
iso-miR-4142
iso-miR-4164
iso-miR-4165
iso-miR-4173
iso-miR-4200
iso-miR-4205
iso-miR-4217
iso-miR-4221
iso-miR-4223
iso-miR-4225
iso-miR-4226
iso-miR-4227
iso-miR-4231
iso-miR-4233
iso-miR-4234
iso-miR-4237
iso-miR-4238
iso-miR-4255
iso-miR-4257
iso-miR-4259
iso-miR-4260
iso-miR-4261
iso-miR-4262
iso-miR-4264
iso-miR-4265
iso-miR-4266
iso-miR-4267
iso-miR-4270
iso-miR-4275
iso-miR-4276
iso-miR-4282
iso-miR-4283
iso-miR-4289
iso-miR-4291
iso-miR-4293
iso-miR-4295
iso-miR-4296
iso-miR-4297
iso-miR-4298
iso-miR-4299
iso-miR-4300
iso-miR-4302
iso-miR-4304
iso-miR-4305
iso-miR-4310
iso-miR-4314
iso-miR-4317
iso-miR-4322
iso-miR-4324
iso-miR-4326
iso-miR-4327
iso-miR-4329
iso-miR-4330
iso-miR-4331
iso-miR-4333
iso-miR-4337
iso-miR-4340
iso-miR-4350
iso-miR-4351
iso-miR-4360
iso-miR-4368
iso-miR-4564
iso-miR-4576
iso-miR-4589
iso-miR-4623
iso-miR-4630
iso-miR-4633
iso-miR-4683
iso-miR-4688
iso-miR-4705
iso-miR-4729
iso-miR-4735
iso-miR-4740
iso-miR-4900
iso-miR-4901
iso-miR-4902
iso-miR-4903
iso-miR-5128
iso-miR-5131
iso-miR-5139
iso-miR-5410
iso-miR-5412
iso-miR-5465
iso-miR-5480
iso-miR-5672
iso-miR-5676
iso-miR-5697
iso-miR-5865
iso-miR-5866
iso-miR-5869
iso-miR-5881
iso-miR-5886
iso-miR-5888
iso-miR-5890
iso-miR-5897
iso-miR-5900
iso-miR-5903
iso-miR-5906
iso-miR-5909
iso-miR-5912
iso-miR-5918
iso-miR-5931
iso-miR-5944
iso-miR-5950
iso-miR-5953
iso-miR-5958
iso-miR-5965
iso-miR-5971
iso-miR-5975
iso-miR-5977
iso-miR-5978
iso-miR-5979
iso-miR-5980
iso-miR-5981
iso-miR-5985
iso-miR-5988
iso-miR-5989
iso-miR-5996
iso-miR-5999
iso-miR-6002
iso-miR-6005
iso-miR-6011
iso-miR-6012
iso-miR-6025
iso-miR-6045
iso-miR-6119
iso-miR-6121
iso-miR-6157
iso-miR-6159
iso-miR-6160
iso-miR-6194
iso-miR-6230
iso-miR-6231
iso-miR-6232
iso-miR-6234
iso-miR-6240
iso-miR-6242
iso-miR-6243
iso-miR-6245
iso-miR-6247
iso-miR-6248
iso-miR-6249
iso-miR-6252
iso-miR-6254
iso-miR-6255
iso-miR-6256
iso-miR-6257
iso-miR-6258
iso-miR-6259
iso-miR-6262
iso-miR-6264
iso-miR-6265
iso-miR-6268
iso-miR-6269
iso-miR-6270
iso-miR-6279
iso-miR-6332
iso-miR-6338
iso-miR-6352
iso-miR-6353
iso-miR-6363
iso-miR-6366
iso-miR-6369
iso-miR-6370
iso-miR-6389
iso-miR-6391
iso-miR-6392
iso-miR-6394
iso-miR-6395
iso-miR-6403
iso-miR-6405
iso-miR-6426
iso-miR-6495
iso-miR-6507
iso-miR-6526
iso-miR-6528
iso-miR-6532
iso-miR-6533
iso-miR-6537
iso-miR-6550
iso-miR-6556
iso-miR-6558
iso-miR-6577
iso-miR-6583
iso-miR-6609
iso-miR-6628
iso-miR-6636
iso-miR-6639
iso-miR-6642
iso-miR-6644
iso-miR-6646
iso-miR-6647
iso-miR-6655
iso-miR-6656
iso-miR-6677
iso-miR-6684
iso-miR-6688
iso-miR-6763
iso-miR-6764
iso-miR-6768
iso-miR-6769
iso-miR-6779
iso-miR-6812
iso-miR-6918
iso-miR-6921
iso-miR-6973
iso-miR-6974
iso-miR-6975
iso-miR-7083
iso-miR-7167
iso-miR-7169
iso-miR-7170
iso-miR-7187
iso-miR-7370
iso-miR-7524
iso-miR-7541
iso-miR-7543
iso-miR-7544
iso-miR-7549
iso-miR-7705
iso-miR-7709
iso-miR-7711
iso-miR-7761
iso-miR-7765
iso-miR-7768
iso-miR-7769
iso-miR-7771
iso-miR-7772
iso-miR-7774
iso-miR-7794
iso-miR-7801
iso-miR-7802
iso-miR-7811
iso-miR-7812
iso-miR-7813
iso-miR-7814
iso-miR-7816
iso-miR-7821
iso-miR-7840
iso-miR-7841
iso-miR-7842
iso-miR-7846
iso-miR-7892
iso-miR-7907
iso-miR-7935
iso-miR-7954
iso-miR-7966
iso-miR-7973
iso-miR-7990
iso-miR-7993
iso-miR-8001
iso-miR-8066
iso-miR-8069
iso-miR-8091
iso-miR-8183
iso-miR-8189
iso-miR-8190
iso-miR-8355
iso-miR-8356
iso-miR-8358
iso-miR-8359
iso-miR-8360
iso-miR-8361
iso-miR-8364
iso-miR-8369
iso-miR-8370
iso-miR-8371
iso-miR-8373
iso-miR-8374
iso-miR-8376
iso-miR-8380
iso-miR-8427
iso-miR-8455
iso-miR-8459
iso-miR-8460
iso-miR-8461
iso-miR-8462
iso-miR-8463
iso-miR-8470
iso-miR-8471
iso-miR-8472
iso-miR-8476
iso-miR-8478
iso-miR-8483
iso-miR-8484
iso-miR-8485
iso-miR-8488
iso-miR-8489
iso-miR-8491
iso-miR-8496
iso-miR-8499
iso-miR-8501
iso-miR-8509
iso-miR-8512
iso-miR-8514
iso-miR-8515
iso-miR-8533
iso-miR-8534
iso-miR-8536
iso-miR-8537
iso-miR-8538
iso-miR-8542
iso-miR-8546
iso-miR-8550
iso-miR-8554
iso-miR-8556
iso-miR-8558
iso-miR-8559
iso-miR-8560
iso-miR-8562
iso-miR-8563
iso-miR-8566
iso-miR-8568
iso-miR-8574
iso-miR-8580
iso-miR-8602
iso-miR-8613
iso-miR-8614
iso-miR-8622
iso-miR-8625
iso-miR-8629
iso-miR-8652
iso-miR-8667
iso-miR-8668
iso-miR-8670
iso-miR-8673
iso-miR-8683
iso-miR-8696
iso-miR-8699
iso-miR-8700
iso-miR-8705
iso-miR-8706
iso-miR-8708
iso-miR-8715
iso-miR-8717
iso-miR-8720
iso-miR-8728
iso-miR-8729
iso-miR-8734
iso-miR-8737
iso-miR-8750
iso-miR-8765
iso-miR-8767
iso-miR-8776
iso-miR-8782
iso-miR-8791
iso-miR-8800
iso-miR-8811
iso-miR-8812
iso-miR-8818
iso-miR-8830
iso-miR-8840
iso-miR-8859
iso-miR-9062
iso-miR-9063
iso-miR-9079
iso-miR-9081
iso-miR-9083
iso-miR-9084
iso-miR-9085
iso-miR-9086
iso-miR-9087
iso-miR-9088
iso-miR-9089
iso-miR-9090
iso-miR-9091
iso-miR-9093
iso-miR-9094
iso-miR-9139
iso-miR-9142
iso-miR-9143
iso-miR-9145
iso-miR-9329
iso-miR-9330
iso-miR-9980
iso-miR-10122
iso-miR-10290
iso-miR-10297
iso-miR-10343
iso-miR-10346
iso-miR-10352
iso-miR-10464
iso-miR-10728
iso-miR-10737
iso-miR-10771
iso-miR-10772
iso-miR-10774
iso-miR-10777
iso-miR-10801
iso-miR-10803
iso-miR-10806
iso-miR-10828
iso-miR-10832
iso-miR-10891
iso-miR-10900
iso-miR-10902
iso-miR-10910
iso-miR-10942
iso-miR-10943
iso-miR-10945
iso-miR-11091
iso-miR-11092
iso-miR-11094
iso-miR-11095
iso-miR-11099
iso-miR-11100
iso-miR-11106
iso-miR-11108
iso-miR-11109
iso-miR-11154
iso-miR-11156
iso-miR-11159
iso-miR-11161
iso-miR-11164
iso-miR-11165
iso-miR-11185
iso-miR-11186
iso-miR-11188
iso-miR-11191
iso-miR-11192
iso-miR-11193
iso-miR-11196
iso-miR-11199
iso-miR-11201
iso-miR-11203
iso-miR-11204
iso-miR-11205
iso-miR-11256
iso-miR-11277
iso-miR-11383
iso-miR-11385
iso-miR-11386
iso-miR-11387
iso-miR-11388
iso-miR-11389
iso-miR-11390
iso-miR-11391
iso-miR-11392
iso-miR-11393
iso-miR-11394
iso-miR-11492
iso-miR-11515
iso-miR-11534
iso-miR-11535
iso-miR-11536
iso-miR-11538
iso-miR-11541
iso-miR-11542
iso-miR-11548
iso-miR-11555
iso-miR-11557
