hsa-let-7b_TGAGGTAGTAGGTTGTGAAT_6_22_0_u-AAT_0_0_0_0	0	0	0	0	0	0	30	0	0	0	0	0	0	0	0	0	0	0	0	0
hsa-miR-1307-5p_TCGACCGGACCTCGACCGAAA_41_58_0_u-AAA_0_u-GCT_AATCTCGA_GGCTCGTC	45	167	198	0	0	0	53	0	0	0	0	0	0	0	0	0	0	0	0	0
hsa-miR-15a-5p_TAGCAGCACATAATGGTTTGTA_14_34_0_u-A_0_u-G_AAAGTAGC_TGTGGATT	66	0	0	0	98	0	0	0	0	0	0	0	0	0	0	0	0	0	0	0
hsa-miR-186-5p_CAAAGAATTCTCCTTTTGGGCATT_15_35_0_u-ATT_0_u-T_TTTCCAAA_GGCTTTCT	0	0	0	0	67	33	0	0	1	0	0	0	0	0	0	0	0	0	0	0
hsa-miR-192-5p_TGACCTATGAATTGACAGCCAGTA_25_47_0_u-A_d-C_d-AGT_GGCTCTGA_AGCCAGTG	0	188	0	0	0	0	0	0	0	0	0	0	0	0	0	0	0	0	0	0
hsa-miR-26a-5p_TCAAGTAATCCAGGATAGGC_15_34_0_0_d-T_u-T_TGGATTCA_GGCTGTTT	0	48	0	0	0	35	0	0	33	0	0	0	0	0	0	0	0	0	0	0
hsa-miR-30a-5p_TGTAAACATTCTCGACTGGAAG_6_27_10TC_0_0_0_CGACTGTA_GAAGCTGT	0	0	0	0	86	60	0	1	0	0	0	0	0	0	0	0	0	0	0	0
hsa-miR-582-5p_TTACAGTTGTTCAACCAGTTAC_16_37_0_0_0_u-T_TTGATTAC_TACTAATC	0	0	0	0	0	102	121	317	0	15	0	0	0	0	0	0	0	0	0	0
hsa-miR-664a-5p_ACTGGCTAGGGAAAATGATTGGA_11_33_0_0_0_u-T_TGAAACTG_GGATAGAA	68	0	0	0	0	0	52	0	0	0	0	0	0	0	0	0	0	0	0	0
hsa-miR-92a-3p_TATTGCACTTGTCCCGGCCTGTAGA_48_69_0_u-AGA_0_0_AAAGTATT_CTGTGGAA	0	0	0	0	0	0	0	0	0	57	0	0	0	0	0	0	0	0	0	0
